Rentals available
…
both <- airbnb %>% 
  mutate(filters = "map") %>% 
  bind_rows(airbnb2) %>% 
  mutate(site = fct_rev(site),
         row_number = 1:nrow(.),
         content = glue::glue("<a href='{url}'>{filters}--{room_id}</a>
                              <br>
                              row-num:{row_number}")) %>%
  select_if(~ !all(is.na(.)))

both %>%
  group_by(longitude, latitude, room_id) %>%
  count() %>%
  filter(n > 1) # 62 but 68 by lon/lat alone
## # A tibble: 62 x 4
## # Groups:   longitude, latitude, room_id [62]
##    longitude latitude room_id      n
##        <dbl>    <dbl> <chr>    <int>
##  1     -78.5     38.0 4151622      2
##  2     -78.5     38.0 24391450     2
##  3     -78.5     38.0 19912330     2
##  4     -78.5     38.0 4961336      2
##  5     -78.5     38.0 12683942     2
##  6     -78.5     38.0 11733216     2
##  7     -78.5     38.0 20846106     2
##  8     -78.5     38.0 15480263     2
##  9     -78.5     38.0 23336579     2
## 10     -78.5     38.0 22097621     2
## #  with 52 more rows
…
